-1.6908 8.6655
-2.3344 7.6525
-0.60255 4.8205
-2.6209 8.6717
-2.6356 9.4492
-0.71431 6.4381
-6.3366 9.2229
-8.5294 13.194
-6.4143 9.2544
-4.6916 8.6989
-4.4207 9.1917
-2.8789 9.2997
-2.3897 8.4037
-3.4328 9.0938
-4.8018 11.429
-0.70531 5.2784
-5.2694 10.731
-4.5445 10.036
-3.3624 7.6003
-4.913 9.1973
-1.1859 7.6458
-1.8654 6.3936
-6.4517 9.4915
-0.25176 5.6263
-0.50801 3.5384
-1.4093 4.4499
-4.0948 10.582
-4.0342 6.0558
-4.2968 11.773
-2.878 8.8612
-2.1956 6.2732
-5.525 11.459
-2.0033 7.8822
-0.62142 5.4717
-3.2125 8.2299
-4.2174 9.6063
-2.1341 7.8441
-5.7723 12.683
-2.1615 7.9649
-3.208 6.6355
-4.5253 8.7307
-3.1155 8.3711
-2.0941 8.5283
-1.7658 6.2406
-2.7373 7.0473
-3.0512 8.8857
-4.0472 7.6465
-3.7899 8.8464
-0.95879 5.3333
0.18821 7.7454
-2.5463 4.812
-3.1104 6.6581
-3.0466 7.6053
-2.9968 4.7683
-2.2946 7.2047
-4.1106 7.3832
1.4838 3.3793
-4.4213 13.177
-3.7609 7.3151
0.3824 6.34
-4.2879 10.596
-0.09372 4.5575
-4.89 8.5291
-3.7867 7.8444
-3.0466 7.6412
-3.6291 6.3022
-1.6843 6.9974
-4.3148 8.8042
-3.0647 7.6264
-1.5293 6.7603
-0.55146 6.5153
-2.6264 12.471
-0.98328 4.3814
-2.0048 6.8747
-4.6328 9.7847
-0.23632 7.6067
-4.1075 9.2075
-1.2567 5.8003
-4.4683 9.5293
-4.6633 6.1837
-2.2415 6.3412
-2.2332 5.9708
-4.474 7.6289
-2.4848 7.2929
-3.7577 10.142
-4.7122 8.0686
-3.4908 9.675
-0.74958 8.9598
-2.477 8.7544
-4.8429 11.265
-2.7508 10.448
-1.8426 4.7791
-4.6123 11.542
-1.0423 5.032
-5.1231 11.282
-3.0618 7.8763
-4.5114 11.242
-2.5278 7.6437
-3.2576 9.6481
-2.9499 8.9855
-1.121 6.6745
-5.4308 10.231
-3.9012 6.1629
-1.9724 5.497
-4.5455 11.663
-2.9667 8.6981
-6.4779 10.005
-1.6528 3.6702
-2.6085 6.2384
-3.9545 8.076
-0.10477 7.2529
-0.44313 6.8169
-5.9837 10.879
-1.5836 7.4105
-1.1868 7.5019
-1.4444 4.8245
-5.323 7.5876
-4.372 9.3443
-1.6154 5.3806
-5.9599 9.9226
-1.9608 9.2045
-3.3426 9.6871
-6.0342 10.866
-1.9317 6.0997
-2.2337 6.7887
-2.4978 7.0318
-4.4153 7.6738
-3.1631 5.8052
-2.999 6.5568
-3.3051 7.8765
-2.5192 7.6142
-1.1259 6.9481
-3.0929 7.1767
1.0015 2.0846
-3.0323 8.3685
-4.1861 8.0649
-2.5329 6.5474
-5.9012 11.073
-3.3253 5.4165
-3.6882 5.2521
-4.9583 10.921
-0.58726 6.9261
-2.8503 6.9569
-4.3936 11.034
-2.3154 7.4118
-4.5893 8.4511
0.77521 4.8169
-4.2802 8.9369
-0.83316 6.5912
-1.3293 7.6003
-1.3104 9.9534
-2.6306 5.4476
-1.9927 6.4674
-2.6138 7.4206
-6.4364 11.117
-3.4073 10.18
-1.3751 4.48
-3.7017 8.3405
-2.6359 6.3356
-2.0327 9.0153
-2.0846 2.6139
-2.9136 8.5813
-3.4967 8.3927
-5.664 11.911
-4.4459 6.0144
-4.3165 9.4971
-3.6523 7.1791
-1.929 8.1036
-5.8122 11.558
-6.2057 12.161
-5.4743 10.833
-4.1514 9.1022
-7.2154 13.16
-2.0565 5.944
-4.2046 7.1446
-7.3317 10.377
0.11107 7.0659
-5.006 11.892
-2.7556 6.5427
-2.4079 7.9544
-2.4532 7.1299
-3.1991 10.011
-2.0475 8.0103
0.53801 2.0365
0.033679 5.2464
-2.8113 9.5585
-2.6162 7.6772
-2.3134 9.2186
-3.7371 6.717
-3.6214 9.839
-5.3449 9.3282
0.15781 5.3367
-1.8897 5.4491
-0.6461 3.8672
-3.226 7.0125
-2.3399 8.5868
-1.6505 9.177
-2.8408 5.7846
-5.4413 9.2276
-2.1533 3.8637
-3.4512 6.9036
-1.2873 5.2976
-2.1837 8.8759
-1.737 8.0091
-0.047233 2.6283
-3.0726 6.934
-6.3351 11.303
-3.3349 10.323
-4.9714 9.6819
-3.0331 7.8264
-1.7463 4.2979
0.66633 4.5568
-3.9045 7.3137
-3.5379 8.6104
-3.1902 10.16
-2.9347 8.4718
-2.2634 6.3276
-1.2071 5.219
-1.2544 5.797
-3.5135 10.11
-2.2488 8.0067
-7.0815 10.535
-3.8648 9.9871
1.368 2.333
-0.16557 2.4188
-1.5046 6.5169
-6.5966 11.217
-1.6318 4.4474
-6.1526 9.9068
-3.3769 9.9552
-3.2151 8.2824
-2.7323 6.7493
-2.9002 8.0812
-4.2291 9.1148
-1.9171 9.3402
-2.7492 7.7024
-1.7373 4.7366
-4.3851 9.6254
-4.9296 9.5107
-5.4672 11.563
-2.0976 6.388
-4.8281 8.7636
-1.853 7.0806
-0.61131 4.1377
-2.0606 9.3242
-2.3481 10.183
-1.3125 5.7849
-1.4833 5.75
-2.7985 9.6219
1.1362 3.2664
